{
  "db": {
    "name": "db",
    "connector": "memory"
  },
  "mysql": {
    "host": "127.0.0.1",
    "port": 3306,
    "url": "",
    "database": "coopAsociado",
    "password": "1602003139Odin!",
    "name": "mysql",
    "user": "root",
    "connector": "mysql"
  }
}
