{
  "name": "TASOC1",
  "plural": "coopAsociadotasocs",
  "base": "PersistedModel",
  "idInjection": true,
  "options": {
    "validateUpsert": true
  },
  "properties": {
    "A1_TIPID": {
      "type": "string",
      "default": "null"
    },
    "A1_NUMID": {
      "type": "number",
      "required": true
    },
    "A1_DIGVER": {
      "type": "number",
      "required": true
    },
    "A1_TIPPER": {
      "type": "string"
    },
    "A1_PRINOM": {
      "type": "string"
    },
    "A1_SEGNOM": {
      "type": "string"
    },
    "A1_PRIAPE": {
      "type": "string"
    },
    "A1_SEGAPE": {
      "type": "string"
    },
    "A1_TIPJUR": {
      "type": "string"
    },
    "A1_FECNAC": {
      "type": "date"
    },
    "A1_GENERO": {
      "type": "string",
      "required": true
    },
    "A1_ETNIA": {
      "type": "string"
    },
    "A1_NIVEDU": {
      "type": "string"
    },
    "A1_ESTCIV": {
      "type": "string"
    },
    "A1_ESTRATO": {
      "type": "string"
    },
    "A1_SSOCIAL": {
      "type": "string"
    },
    "A1_TIPVIV": {
      "type": "string"
    },
    "A1_LIDER": {
      "type": "string"
    },
    "A1_NUMPER": {
      "type": "number"
    },
    "A1_ACTIV": {
      "type": "string"
    },
    "A1_TEL": {
      "type": "string"
    },
    "A1_CEL": {
      "type": "string"
    },
    "A1_CORREO": {
      "type": "string"
    }
  },
  "validations": [],
  "relations": {},
  "acls": [],
  "methods": {}
}
