{
  "name": "TBENEF",
  "plural": "beneficiarios",
  "base": "PersistedModel",
  "idInjection": true,
  "options": {
    "validateUpsert": true
  },
  "properties": {
    "BE_TIPID": {
      "type": "number"
    },
    "BE_NUMID": {
      "type": "number"
    },
    "BE_TIPIDBEN": {
      "type": "number"
    },
    "BE_NUMIDBEN": {
      "type": "number"
    },
    "BE_TIPREL": {
      "type": "string"
    },
    "BE_INDCON": {
      "type": "number"
    },
    "BE_PRINOM": {
      "type": "string"
    },
    "BE_SEGNOM": {
      "type": "string"
    },
    "BE_PRIAPE": {
      "type": "string"
    },
    "BE_SEGAPE": {
      "type": "string"
    },
    "BE_FECNAC": {
      "type": "date"
    },
    "BE_GENERO": {
      "type": "string"
    },
    "BE_RELNUC": {
      "type": "string"
    },
    "BE_NIVEDU": {
      "type": "string"
    },
    "BE_SSOCIAL": {
      "type": "string"
    },
    "BE_FECRET": {
      "type": "date"
    },
    "BE_CAUSAL": {
      "type": "string"
    },
    "BE_TEL": {
      "type": "string"
    },
    "BE_CEL": {
      "type": "string"
    },
    "BE_CORREO": {
      "type": "string"
    },
    "A1_NUMID": {
      "type": "number"
    }
  },
  "validations": [],
  "relations": {},
  "acls": [],
  "methods": {}
}
