{
  "name": "TEDUC1",
  "plural": "estudios",
  "base": "PersistedModel",
  "idInjection": true,
  "options": {
    "validateUpsert": true
  },
  "properties": {
    "E1_TIPID": {
      "type": "string"
    },
    "E1_NUMID": {
      "type": "number"
    },
    "E1_FECHA": {
      "type": "date"
    },
    "E1_CURSO": {
      "type": "string"
    },
    "E1_CODIGO": {
      "type": "string"
    },
    "A1_NUMID": {
      "type": "number"
    },
    "BE_NUMIDBEN": {
      "type": "number"
    }
  },
  "validations": [],
  "relations": {},
  "acls": [],
  "methods": {}
}
