{
  "name": "TFINA1",
  "plural": "financieros",
  "base": "PersistedModel",
  "idInjection": true,
  "options": {
    "validateUpsert": true
  },
  "properties": {
    "F1_TIPIDE": {
      "type": "string"
    },
    "F1_NUMIDE": {
      "type": "number"
    },
    "F1_DIGVER": {
      "type": "number"
    },
    "F1_CODIGO": {
      "type": "string"
    },
    "F1_USO": {
      "type": "string"
    },
    "F1_OTROUSO": {
      "type": "string"
    },
    "F1_VALOR": {
      "type": "number"
    },
    "F1_TASA": {
      "type": "number"
    },
    "F1_FECHA": {
      "type": "date"
    },
    "F1_CANOPE": {
      "type": "number"
    },
    "A1_NUMID": {
      "type": "number"
    }
  },
  "validations": [],
  "relations": {},
  "acls": [],
  "methods": {}
}
