{
  "name": "Socioeconomica",
  "plural": "socioeconomicas",
  "base": "PersistedModel",
  "idInjection": true,
  "options": {
    "validateUpsert": true
  },
  "properties": {
    "idSocioeconomica": {
      "type": "number",
      "required": true,
      "id": true
    },
    "Tipocodumento_idTipocodumento": {
      "type": "number",
      "required": true
    },
    "Tipopersona_idTipopersona": {
      "type": "number",
      "required": true
    }
  },
  "validations": [],
  "relations": {},
  "acls": [],
  "methods": {}
}
