{
  "name": "Ubicacion",
  "plural": "ubicaciones",
  "base": "PersistedModel",
  "idInjection": true,
  "options": {
    "validateUpsert": true
  },
  "properties": {
    "idUbicacion": {
      "type": "number",
      "required": true,
      "id": true
    },
    "Telefono": {
      "type": "string"
    },
    "Celular": {
      "type": "string"
    },
    "Correo": {
      "type": "string",
      "required": true
    },
    "Direccion": {
      "type": "string",
      "required": true
    },
    "Barrio": {
      "type": "string",
      "required": true
    },
    "Socioeconomica_idSocioeconomica": {
      "type": "number",
      "required": true
    },
    "Ciudad_idCiudad": {
      "type": "number",
      "required": true
    },
    "Departamento_idDepartamento": {
      "type": "number",
      "required": true
    },
    "Pais_idPais": {
      "type": "number",
      "required": true
    },
    "Area_idArea": {
      "type": "number",
      "required": true
    }
  },
  "validations": [],
  "relations": {},
  "acls": [],
  "methods": {}
}
