{
  "name": "Alianzas",
  "plural": "alianzas",
  "base": "PersistedModel",
  "idInjection": true,
  "options": {
    "validateUpsert": true
  },
  "properties": {
    "idAlianzas": {
      "type": "number",
      "id": true
    },
    "MontoInvertidoCompromiso": {
      "type": "number"
    },
    "NoBeneficiariosCompromiso": {
      "type": "number"
    },
    "SocioEconomicaOrganizacion_idSocioEconomicaOrganizacion": {
      "type": "number",
      "required": true
    }
  },
  "validations": [],
  "relations": {},
  "acls": [],
  "methods": {}
}
