{
  "name": "CaracteristicasEcoComun",
  "plural": "caracteristicasenonomicas",
  "base": "PersistedModel",
  "idInjection": true,
  "options": {
    "validateUpsert": true
  },
  "properties": {
    "idCaracteristicasEcoComun": {
      "type": "number",
      "id": true
    },
    "CaracteristicasEcoComun": {
      "type": "string"
    },
    "SocioEconomicaOrganizacion_idSocioEconomicaOrganizacion": {
      "type": "number",
      "required": true
    }
  },
  "validations": [],
  "relations": {},
  "acls": [],
  "methods": {}
}
