{
  "name": "DecisionesOrganosAdmon",
  "plural": "decisionesadmis",
  "base": "PersistedModel",
  "idInjection": true,
  "options": {
    "validateUpsert": true
  },
  "properties": {
    "idDecisionesOrganosAdmon": {
      "type": "number",
      "id": true
    },
    "ComunicaAdmon": {
      "type": "boolean"
    },
    "CualMedioUtilizaAdmon": {
      "type": "string"
    },
    "CualFrecuencia": {
      "type": "string"
    },
    "SocioEconomicaOrganizacion_idSocioEconomicaOrganizacion": {
      "type": "number",
      "required": true
    }
  },
  "validations": [],
  "relations": {},
  "acls": [],
  "methods": {}
}
