{
  "name": "FormacionComunidadExterna",
  "plural": "formacionesexternas",
  "base": "PersistedModel",
  "idInjection": true,
  "options": {
    "validateUpsert": true
  },
  "properties": {
    "idFormacionComunidadExterna": {
      "type": "number",
      "id": true
    },
    "Beneficiarios": {
      "type": "number"
    },
    "HombresBeneficiarios": {
      "type": "number"
    },
    "MujeresBeneficiarios": {
      "type": "number"
    },
    "MenoresEdad": {
      "type": "number"
    },
    "SocioEconomicaOrganizacion_idSocioEconomicaOrganizacion": {
      "type": "number",
      "required": true
    }
  },
  "validations": [],
  "relations": {},
  "acls": [],
  "methods": {}
}
