{
  "name": "ObjetivosCompromiso",
  "plural": "objetivoscompromisos",
  "base": "PersistedModel",
  "idInjection": true,
  "options": {
    "validateUpsert": true
  },
  "properties": {
    "idCompromiso": {
      "type": "number",
      "id": true
    },
    "InstPublica": {
      "type": "string"
    },
    "InstPrivada": {
      "type": "string"
    },
    "InstInternal": {
      "type": "string"
    },
    "SocioEconomicaOrganizacion_idSocioEconomicaOrganizacion": {
      "type": "number",
      "required": true
    }
  },
  "validations": [],
  "relations": {},
  "acls": [],
  "methods": {}
}
