{
  "name": "PaticipacionAsociados",
  "plural": "participacionesasociados",
  "base": "PersistedModel",
  "idInjection": true,
  "options": {
    "validateUpsert": true
  },
  "properties": {
    "idPaticipacionAsociados": {
      "type": "number",
      "id": true
    },
    "FondoBienestar": {
      "type": "number"
    },
    "FondoDesarrolloEmpresarial": {
      "type": "number"
    },
    "OtroFondo": {
      "type": "number"
    },
    "Cual": {
      "type": "string"
    },
    "SocioEconomicaOrganizacion_idSocioEconomicaOrganizacion": {
      "type": "number",
      "required": true
    }
  },
  "validations": [],
  "relations": {},
  "acls": [],
  "methods": {}
}
