{
  "name": "SocioEconomicaOrganizacion",
  "plural": "sociosorganizaciones",
  "base": "PersistedModel",
  "idInjection": true,
  "options": {
    "validateUpsert": true
  },
  "properties": {
    "idSocioEconomicaOrganizacion": {
      "type": "number",
      "required": true,
      "id": true
    },
    "NombreEntidad": {
      "type": "string",
      "required": true
    },
    "Anho": {
      "type": "number",
      "required": true
    },
    "NumeroAsociados": {
      "type": "number",
      "required": true
    }
  },
  "validations": [],
  "relations": {},
  "acls": [],
  "methods": {}
}
