{
  "name": "TAUTO1",
  "plural": "autos",
  "base": "PersistedModel",
  "idInjection": true,
  "options": {
    "validateUpsert": true
  },
  "properties": {
    "AU1_ANIO": {
      "type": "number"
    },
    "AU1_NIT": {
      "type": "number"
    },
    "AU1_APAL_PROP_VALOR": {
      "type": "number"
    },
    "AU1_APAL_PROP_TASA": {
      "type": "number"
    },
    "AU1_APAL_TERC_VALOR": {
      "type": "number"
    },
    "AU1_APAL_TERC_TASA": {
      "type": "number"
    },
    "AU1_PATR_BEN_ASOC": {
      "type": "number"
    },
    "AU1_BUEN_GOB": {
      "type": "number"
    }
  },
  "validations": [],
  "relations": {},
  "acls": [],
  "methods": {}
}
