{
  "name": "TCOMP1",
  "plural": "comps",
  "base": "PersistedModel",
  "idInjection": true,
  "options": {
    "validateUpsert": true
  },
  "properties": {
    "CM1_ANIO": {
      "type": "number"
    },
    "CM1_NIT": {
      "type": "number"
    },
    "CM1_SOC_INDADEL_PROGS": {
      "type": "number"
    },
    "CM1_SOC_INDREAL_PROGS": {
      "type": "number"
    },
    "CM1_SOC_CARACT1": {
      "type": "string"
    },
    "CM1_SOC_CARACT2": {
      "type": "string"
    },
    "CM1_SOC_CARACT3": {
      "type": "string"
    },
    "CM1_SOC_MONTO": {
      "type": "number"
    },
    "CM1_SOC_MUNICIPIO": {
      "type": "string"
    },
    "CM1_SOC_NUM_BENEF": {
      "type": "number"
    },
    "CM1_SOC_IMPACTO1": {
      "type": "string"
    },
    "CM1_SOC_IMPACTO2": {
      "type": "string"
    },
    "CM1_SOC_IMPACTO3": {
      "type": "string"
    },
    "CM1_CULT_INDREAL_PROGS": {
      "type": "number"
    },
    "CM1_CULT_CARACT1": {
      "type": "string"
    },
    "CM1_CULT_CARACT2": {
      "type": "string"
    },
    "CM1_CULT_CARACT3": {
      "type": "string"
    },
    "CM1_CULT_MONTO": {
      "type": "number"
    },
    "CM1_CULT_MUNICIPIO": {
      "type": "string"
    },
    "CM1_CULT_NUM_BENEF": {
      "type": "number"
    },
    "CM1_CULT_IMPACTO1": {
      "type": "string"
    },
    "CM1_CULT_IMPACTO2": {
      "type": "string"
    },
    "CM1_CULT_IMPACTO3": {
      "type": "string"
    },
    "CM1_AMB_INDREAL_PROGS": {
      "type": "number"
    },
    "CM1_AMB_CARACT1": {
      "type": "string"
    },
    "CM1_AMB_CARACT2": {
      "type": "string"
    },
    "CM1_AMB_CARACT3": {
      "type": "string"
    },
    "CM1_AMB_MONTO": {
      "type": "number"
    },
    "CM1_AMB_MUNICIPIO": {
      "type": "string"
    },
    "CM1_AMB_NUM_BENEF": {
      "type": "number"
    },
    "CM1_AMB_IMPACTO1": {
      "type": "string"
    },
    "CM1_AMB_IMPACTO2": {
      "type": "string"
    },
    "CM1_AMB_IMPACTO3": {
      "type": "string"
    },
    "CM1_DECO_INDREAL_PROGS": {
      "type": "number"
    },
    "CM1_DECO_CARACT1": {
      "type": "string"
    },
    "CM1_DECO_CARACT2": {
      "type": "string"
    },
    "CM1_DECO_CARACT3": {
      "type": "string"
    },
    "CM1_DECO_MONTO": {
      "type": "number"
    },
    "CM1_DECO_MUNICIPIO": {
      "type": "string"
    },
    "CM1_DECO_NUM_BENEF": {
      "type": "number"
    },
    "CM1_DECO_IMPACTO1": {
      "type": "string"
    },
    "CM1_DECO_IMPACTO2": {
      "type": "string"
    },
    "CM1_DECO_IMPACTO3": {
      "type": "string"
    },
    "CM1_TOTAL_MONTO": {
      "type": "number"
    },
    "CM1_ORG_INDINCIDE_COMUNIT": {
      "type": "number"
    },
    "CM1_ORG_APORTE_COMUNIT": {
      "type": "number"
    },
    "CM1_ORG_INDREL_INST": {
      "type": "number"
    },
    "CM1_ORG_ALIA_PUB": {
      "type": "string"
    },
    "CM1_ORG_ACUE_PUB": {
      "type": "string"
    },
    "CM1_ORG_CONV_PUB": {
      "type": "string"
    },
    "CM1_ORG_ALIA_PRIV": {
      "type": "string"
    },
    "CM1_ORG_ACUE_PRIV": {
      "type": "string"
    },
    "CM1_ORG_CONV_PRIV": {
      "type": "string"
    },
    "CM1_ORG_ALIA_INT": {
      "type": "string"
    },
    "CM1_ORG_ACUE_INT": {
      "type": "string"
    },
    "CM1_ORG_CONV_INT": {
      "type": "string"
    },
    "CM1_ORG_OBJ_PUB": {
      "type": "string"
    },
    "CM1_ORG_OBJ_PRIV": {
      "type": "string"
    },
    "CM1_ORG_OBJ_INT": {
      "type": "string"
    },
    "CM1_RELS_MONTO": {
      "type": "number"
    },
    "CM1_RELS_NUM_BENEF": {
      "type": "number"
    },
    "CM1_IMPACTO_INST_PUB": {
      "type": "string"
    },
    "CM1_IMPACTO_INST_PRIV": {
      "type": "string"
    },
    "CM1_IMPACTO_INST_INT": {
      "type": "string"
    },
    "CM1_INDEVAL_SEGUIM": {
      "type": "number"
    },
    "CM1_BALANCE": {
      "type": "string"
    }
  },
  "validations": [],
  "relations": {},
  "acls": [],
  "methods": {}
}
