{
  "MysqlDatasource": {
    "host": "127.0.0.1",
    "port": 0,
    "url": "",
    "database": "coopOrganizacion",
    "password": "1602003139Odin!",
    "name": "MysqlDatasource",
    "user": "root",
    "connector": "mysql"
  }
}
