{
  "_meta": {
    "sources": [
      "loopback/common/models",
      "loopback/server/models",
      "../common/models",
      "./models"
    ],
    "mixins": [
      "loopback/common/mixins",
      "loopback/server/mixins",
      "../common/mixins",
      "./mixins"
    ]
  },
  "TADMIN": {
    "dataSource": "MysqlDatasource",
    "public": true
  },
  "TASAMB": {
    "dataSource": "MysqlDatasource",
    "public": true
  },
  "TAUTO1": {
    "dataSource": "MysqlDatasource",
    "public": true
  },
  "TCOMP1": {
    "dataSource": "MysqlDatasource",
    "public": true
  },
  "TCOMU1": {
    "dataSource": "MysqlDatasource",
    "public": true
  },
  "TCOOP1": {
    "dataSource": "MysqlDatasource",
    "public": true
  },
  "TECON1": {
    "dataSource": "MysqlDatasource",
    "public": true
  },
  "TEDUC2": {
    "dataSource": "MysqlDatasource",
    "public": true
  }
}
